{
  "version": "v4",
  "repo": "borisyankov/DefinitelyTyped",
  "ref": "master",
  "path": "typings",
  "bundle": "typings/tsd.d.ts",
  "installed": {
    "jasmine/jasmine.d.ts": {
      "commit": "f481e77dfca5a146db1b4f5f20f15929b30c8729"
    }
  }
}
